Config warnings:
- plugins.entries.lossless-claw: plugin lossless-claw: duplicate plugin id detected; global plugin will be overridden by global plugin (/Users/jtsomwaru/.openclaw/npm/node_modules/@martian-engineering/lossless-claw/dist/index.js)
{
  "entries": [
    {
      "ts": 1778695200037,
      "jobId": "eve-heartbeat-2h-002",
      "action": "finished",
      "status": "ok",
      "summary": "Heartbeat: Read HEARTBEAT.md and follow it. Check tasks, cron status, and if idle pick a proactive work item. Log what you do in today's daily note.\n\nALSO: Run this command and check for alerts:\n  python3 ~/.openclaw/workspace/scripts/cost-tracker.py --check-alerts\nIf the output JSON array is non-empty, send each alert message to JT via Telegram (channel=telegram, target=6608544825) immediately. If the array is empty, no action needed for cost.",
      "runAtMs": 1778695200031,
      "durationMs": 1,
      "nextRunAtMs": 1778709600000,
      "deliveryStatus": "not-requested"
    }
  ],
  "total": 282,
  "offset": 0,
  "limit": 1,
  "hasMore": true,
  "nextOffset": 1
}
