{
  "entries": [
    {
      "ts": 1778665610675,
      "jobId": "33b8b0a2-e86c-4f51-aa4f-b8537def3107",
      "action": "finished",
      "status": "ok",
      "summary": "All X research search commands have completed successfully. I will now proceed to analyze the results and compile the findings for JT's review. I'll ensure the data meets the relevance and engagement thresholds required for further action.",
      "runAtMs": 1778665500048,
      "durationMs": 110623,
      "nextRunAtMs": 1778838300000,
      "model": "deepseek/deepseek-chat-v3-0324",
      "provider": "openrouter",
      "usage": {
        "input_tokens": 281773,
        "output_tokens": 757,
        "total_tokens": 41445
      },
      "delivered": false,
      "deliveryStatus": "not-requested",
      "delivery": {
        "intended": {
          "channel": "last",
          "to": null,
          "source": "last"
        },
        "fallbackUsed": false,
        "delivered": false
      },
      "sessionId": "78e6cb15-6342-4dcd-b1e4-cacb08f93d93",
      "sessionKey": "agent:main:cron:33b8b0a2-e86c-4f51-aa4f-b8537def3107:run:78e6cb15-6342-4dcd-b1e4-cacb08f93d93"
    },
    {
      "ts": 1778492925976,
      "jobId": "33b8b0a2-e86c-4f51-aa4f-b8537def3107",
      "action": "finished",
      "status": "ok",
      "summary": "Based on the X research results, here's a summary of the most relevant findings for JT's niches:\n\n1. **AI Implementation/Consulting**:\n   - No strong signals found in the past 7 days (0 posts after filters)\n\n2. **n8n/Workflow Automation**:\n   - Found 1 relevant post:\n     - Tweet by @The_CoDEFi highlighting n8n as a top open-source AI workflow automation tool (105 likes, 1251 impressions)\n\n3. **Agentforce/Salesforce Agents**:\n   - No strong signals found in the past 7 days (0 posts after filters)\n\n4. **SMB Niches (Property Management/Construction)**:\n   - No strong signals found in the past 7 days (0 posts after filters)\n\n5. **Claude Code/Agent Tooling**:\n   - Found 3 relevant posts:\n     - Japanese thread summarizing Claude Code best practices (227 likes, 25k+ impressions)\n     - New claude-skills repo announcement (44 likes)\n     - Discussion about underutilized Claude Skills (42 likes)\n\n6. **Build Distribution/Public Building**:\n   - Found 2 relevant posts:\n     - General call for builders to connect (19 likes)\n     - Open call for public builders to showcase projects (12 likes)\n\n**Content Signals Identified**:\n1. **FORMAT**: \"Open Source Roundup\" - The @The_CoDEFi post demonstrates this format's effectiveness for workflow/AI tools (105+ likes)\n2. **TOPIC**: \"Claude Skills\" - Multiple posts discussing specialized Claude capabilities (3 posts, 300+ total engagement)\n\n**Recommended Next Steps**:\n1. Consider drafting an \"Open Source AI Workflow Tools\" post highlighting n8n + OpenClaw\n2. Explore creating content around Claude Skills for consulting workflows\n3. The Japanese Claude Code thread suggests potential for localized content strategies\n\nWould you like me to:\n1. Draft sample posts based on these signals\n2. Identify specific reply targets from these results\n3. Proceed with Notion swipe file updates for the strongest signals?",
      "runAtMs": 1778492700039,
      "durationMs": 225931,
      "nextRunAtMs": 1778665500000,
      "model": "deepseek/deepseek-chat-v3-0324",
      "provider": "openrouter",
      "usage": {
        "input_tokens": 535975,
        "output_tokens": 3003,
        "total_tokens": 44779
      },
      "delivered": false,
      "deliveryStatus": "not-requested",
      "delivery": {
        "intended": {
          "channel": "last",
          "to": null,
          "source": "last"
        },
        "fallbackUsed": false,
        "delivered": false
      },
      "sessionId": "3377e050-e1d6-440b-84dc-9e992dddaf7a",
      "sessionKey": "agent:main:cron:33b8b0a2-e86c-4f51-aa4f-b8537def3107:run:3377e050-e1d6-440b-84dc-9e992dddaf7a"
    },
    {
      "ts": 1778233611960,
      "jobId": "33b8b0a2-e86c-4f51-aa4f-b8537def3107",
      "action": "finished",
      "status": "ok",
      "runAtMs": 1778233500038,
      "durationMs": 111917,
      "nextRunAtMs": 1778492700000,
      "model": "deepseek/deepseek-chat-v3-0324",
      "provider": "openrouter",
      "usage": {
        "input_tokens": 196546,
        "output_tokens": 693,
        "total_tokens": 40936
      },
      "delivered": false,
      "deliveryStatus": "not-requested",
      "delivery": {
        "intended": {
          "channel": "last",
          "to": null,
          "source": "last"
        },
        "fallbackUsed": false,
        "delivered": false
      },
      "sessionId": "96e47be6-816e-40c3-aced-47fa45e993f9",
      "sessionKey": "agent:main:cron:33b8b0a2-e86c-4f51-aa4f-b8537def3107:run:96e47be6-816e-40c3-aced-47fa45e993f9"
    },
    {
      "ts": 1778060840110,
      "jobId": "33b8b0a2-e86c-4f51-aa4f-b8537def3107",
      "action": "finished",
      "status": "ok",
      "summary": "🎯 X Reply Targets — 2026-05-06\n\n**@bridgemindai** (11.2K👁)\nTheir post: \"Everyone is watching Claude Opus 4.7. But the real shift is happening inside Claude Code. Claude as chatbot is dead. Claude as an agent stack is the new baseline...\"\nDraft reply: \"Claude Code's shift to MCP-native execution is the real unlock. How are you handling edge-case failures in production?\"\n\n**@polydao** (5.7K👁)\nTheir post: \"SCREENSHOT ANY N8N WORKFLOW. CLAUDE OPUS 4.7 CLONES IT INTO WORKING JSON. ZERO CODE...\"\nDraft reply: \"This is wild. Have you tested it with complex multi-branch workflows yet?\"\n\n**@natolisnuggets** (4.3K👁)\nTheir post: \"If I were graduating college this month, i'd learn to become a GTM Engineer, Agent Operator and AI Agent deployer...\"\nDraft reply: \"GTM Engineer is the new hot role. What’s the first project you’d assign to a junior GTM Engineer?\"\n\n**@radavis3** (24👁)\nTheir post: \"Going to AI Agent Conference in NYC? Don’t miss the live demo of RingCentral AIR Pro (AI Representative)...\" \nDraft reply: \"How does AIR Pro handle escalations when the AI can’t resolve the issue?\"\n\n**@victor_wu** (712👁)\nTheir post: \"这两天大规模使用下来，有两个比较深的感悟：1. Claude 的 Sonnet 系列模型是一个被低估的模型。2. 平行架构的多 Agent 模式真的会比 Sub-agent 模式更好吗？其实我是存疑的...\"\nDraft reply: \"Sub-agent vs. parallel agents is a real debate. What’s the worst failure mode you’ve seen in each?\"\n\n---\n\nDrive: https://docs.google.com/document/d/1s90XQV0sN7Q0YSAEGX0bZ684uJo8H_ka8j5T4Iiqu3I/edit\n\n📊 Content signals logged: 0 new entries",
      "runAtMs": 1778060700027,
      "durationMs": 140079,
      "nextRunAtMs": 1778233500000,
      "model": "deepseek/deepseek-chat-v3-0324",
      "provider": "openrouter",
      "usage": {
        "input_tokens": 228284,
        "output_tokens": 2087,
        "total_tokens": 49119
      },
      "delivered": false,
      "deliveryStatus": "not-requested",
      "delivery": {
        "intended": {
          "channel": "last",
          "to": null,
          "source": "last"
        },
        "messageToolSentTo": [
          {
            "channel": "telegram",
            "to": "telegram:6608544825"
          }
        ],
        "fallbackUsed": false,
        "delivered": false
      },
      "sessionId": "589e1e74-5898-466e-8f20-abb9f663db7d",
      "sessionKey": "agent:main:cron:33b8b0a2-e86c-4f51-aa4f-b8537def3107:run:589e1e74-5898-466e-8f20-abb9f663db7d"
    },
    {
      "ts": 1777888033039,
      "jobId": "33b8b0a2-e86c-4f51-aa4f-b8537def3107",
      "action": "finished",
      "status": "ok",
      "summary": "Cron complete. Sent JT 6 reply targets. No new content signals this run. No format draft triggered.",
      "runAtMs": 1777887900026,
      "durationMs": 133008,
      "nextRunAtMs": 1778060700000,
      "model": "kimi-k2.6",
      "provider": "moonshot",
      "usage": {
        "input_tokens": 85453,
        "output_tokens": 3326,
        "total_tokens": 87597
      },
      "delivered": true,
      "deliveryStatus": "not-requested",
      "delivery": {
        "intended": {
          "channel": "last",
          "to": null,
          "source": "last"
        },
        "resolved": {
          "ok": true,
          "channel": "telegram",
          "to": "telegram:6608544825",
          "accountId": "default",
          "source": "last"
        },
        "messageToolSentTo": [
          {
            "channel": "telegram",
            "to": "telegram:6608544825"
          }
        ],
        "fallbackUsed": false,
        "delivered": true
      },
      "sessionId": "fc96c0c2-23f1-4e73-b6e4-d6953a1efe14",
      "sessionKey": "agent:main:cron:33b8b0a2-e86c-4f51-aa4f-b8537def3107:run:fc96c0c2-23f1-4e73-b6e4-d6953a1efe14"
    }
  ],
  "total": 34,
  "offset": 0,
  "limit": 5,
  "hasMore": true,
  "nextOffset": 5
}
